   0.0000e+00
   0.0000e+00
   0.0000e+00
   0.0000e+00
   0.0000e+00
   0.0000e+00
   0.0000e+00
   0.0000e+00
   0.0000e+00
   0.0000e+00
   0.0000e+00
   0.0000e+00
   0.0000e+00
   0.0000e+00
   0.0000e+00
   0.0000e+00
   0.0000e+00
   0.0000e+00
   0.0000e+00
   0.0000e+00
   0.0000e+00
   0.0000e+00
   0.0000e+00
   0.0000e+00
   0.0000e+00
   0.0000e+00
   0.0000e+00
   0.0000e+00
   0.0000e+00
   0.0000e+00
   0.0000e+00
   0.0000e+00
   0.0000e+00
   1.2358e+34

RESULT: sizex 10.4563 0.29866 0.298502 0.210032 0.210013 0.210017 0.20893
RESULT: sizey 0.467599 0.0306614 0.0306601 0.00285148 0.00284023 0.00285205 0.00280232
RESULT: luminosity 3.64061e+30 6.44995e+32 6.41864e+32 1.22045e+34 1.22072e+34 1.21776e+34 1.23582e+34

INFO           Thank you for using PLACET! Goodbye!
