   0.0000e+00
   0.0000e+00
   0.0000e+00
   0.0000e+00
   0.0000e+00
   0.0000e+00
   0.0000e+00
   0.0000e+00
   0.0000e+00
   0.0000e+00
   0.0000e+00
   0.0000e+00
   0.0000e+00
   0.0000e+00
   0.0000e+00
   0.0000e+00
   0.0000e+00
   0.0000e+00
   0.0000e+00
   0.0000e+00
   0.0000e+00
   0.0000e+00
   0.0000e+00
   0.0000e+00
   0.0000e+00
   0.0000e+00
   0.0000e+00
   0.0000e+00
   0.0000e+00
   0.0000e+00
   0.0000e+00
   0.0000e+00
   0.0000e+00
   1.0922e+34

RESULT: sizex 10.3998 0.356217 0.356265 0.22108 0.221015 0.220889 0.215265
RESULT: sizey 0.472664 0.0463486 0.0463509 0.0034592 0.00344946 0.00345804 0.00311374
RESULT: luminosity 3.78844e+30 2.86099e+32 2.86203e+32 9.63989e+33 9.64214e+33 9.68358e+33 1.09215e+34

INFO           Thank you for using PLACET! Goodbye!
