   0.0000e+00
   0.0000e+00
   0.0000e+00
   0.0000e+00
   0.0000e+00
   0.0000e+00
   0.0000e+00
   0.0000e+00
   0.0000e+00
   0.0000e+00
   0.0000e+00
   0.0000e+00
   0.0000e+00
   0.0000e+00
   0.0000e+00
   0.0000e+00
   0.0000e+00
   0.0000e+00
   0.0000e+00
   0.0000e+00
   0.0000e+00
   0.0000e+00
   0.0000e+00
   0.0000e+00
   0.0000e+00
   0.0000e+00
   0.0000e+00
   0.0000e+00
   0.0000e+00
   0.0000e+00
   0.0000e+00
   0.0000e+00
   0.0000e+00
   8.8044e+33

RESULT: sizex 2.3584 0.208838 0.208829 0.201102 0.281092 0.28116 0.252179
RESULT: sizey 0.542205 0.0651511 0.0651705 0.0040199 0.0212618 0.0212633 0.0039759
RESULT: luminosity 1.04926e+31 3.08442e+32 3.1065e+32 1.17054e+34 8.42832e+32 8.44714e+32 8.80444e+33

INFO           Thank you for using PLACET! Goodbye!
